{
  "AppSyncApiName": "amplifyapp",
  "DynamoDBBillingMode": "PAY_PER_REQUEST",
  "DynamoDBEnableServerSideEncryption": false,
  "AuthCognitoUserPoolId": {
    "Fn::GetAtt": [
      "authamplifyapp8460f167",
      "Outputs.UserPoolId"
    ]
  }
}